[
    {
        "comment": "defaults #all",
        "config": {
            "cnv": false,
            "mtdna": false,
            "tracks": true
        },
        "regexes": {
            "CAPTUREKIT": ".*",
            "GP_NAME": ".*",
            "GP_VERSION": ".*",
            "SAMPLE_ID": ".*",
            "TYPE": ".*"
        }
    },
    {
        "comment": "CNVs for all single WGS analyses",
        "config": {
            "cnv": true
        },
        "regexes": {
            "CAPTUREKIT": ".*",
            "GP_NAME": ".*",
            "GP_VERSION": ".*",
            "SAMPLE_ID": ".*wgs.*",
            "TYPE": "^single$"
        }
    },
    {
        "comment": "CNVs for all EKG analyses",
        "config": {
            "cnv": true
        },
        "regexes": {
            "SAMPLE_ID": ".*EKG.*"
        }
    },
    {
        "comment": "CNVs for some trio WGS analyses",
        "config": {
            "cnv": true
        },
        "regexes": {
            "GP_NAME": "^(UtAv|Metabolsk|Foster)$",
            "SAMPLE_ID": ".*wgs.*",
            "TYPE": "^trio$"
        }
    },
    {
        "comment": "some gene panels should, as a rule, not get CNVs",
        "config": {
            "cnv": false
        },
        "regexes": {
            "GP_NAME": "^(UtAv|Eksom.*)$",
            "SAMPLE_ID": ".*",
            "TYPE": "^(single)$"
        }
    },
    {
        "comment": "CNVs for custom analyses with '+CNV' tag (gives CNVs to Eksom and UtAv, too)",
        "config": {
            "cnv": true
        },
        "regexes": {
            "GP_NAME": ".*\\+CNV$",
            "SAMPLE_ID": ".*wgs.*",
            "TYPE": "^(single|trio)$"
        }
    },
    {
        "comment": "mtDNA for single analyses based on mitochondrial panels (fuzzy match)",
        "config": {
            "mtdna": true
        },
        "regexes": {
            "GP_NAME": ".*(?i:Mitokon|mtDNA).*",
            "SAMPLE_ID": ".*wgs.*",
            "TYPE": "^(single)$"
        }
    },
    {
        "comment": "mtDNA for single analyses based on some other gene panels (fuzzy match)",
        "config": {
            "mtdna": true
        },
        "regexes": {
            "GP_NAME": ".*(?i:CerebSmaakar|Leukodystrof|Metabolsk|Synsnerve).*",
            "SAMPLE_ID": ".*wgs.*",
            "TYPE": "^(single)$"
        }
    },
    {
        "comment": "mtDNA for single analyses based on heart-related gene panels",
        "config": {
            "mtdna": true
        },
        "regexes": {
            "GP_NAME": "^(Cardio|HCM|PedCard)$",
            "SAMPLE_ID": ".*wgs.*",
            "TYPE": "^(single)$"
        }
    },
    {
        "comment": "mtDNA for trio analyses based on 'Metabolsk' or 'mtDNA' panels (fuzzy match)",
        "config": {
            "mtdna": true
        },
        "regexes": {
            "GP_NAME": ".*(?i:Metabolsk|mtDNA).*",
            "SAMPLE_ID": ".*wgs.*",
            "TYPE": "^(trio)$"
        }
    }
]
